Alpine dry meadow fertilization results
…
## N:Grass_rel-P:Forb_rel      -0.6206581 -32.2590429  31.017727 1.0000000
## P:Grass_rel-P:Forb_rel      -5.0897721 -36.7281570  26.548613 0.9993234
## N+P:Grass_rel-P:Forb_rel   -30.3064590 -61.9448439   1.331926 0.0672706
## C:Grass_rel-N+P:Forb_rel   -40.0894133 -71.7277981  -8.451028 0.0065704
## N:Grass_rel-N+P:Forb_rel   -25.8373450 -57.4757298   5.801040 0.1692412
## P:Grass_rel-N+P:Forb_rel   -30.3064590 -61.9448439   1.331926 0.0672706
## N+P:Grass_rel-N+P:Forb_rel -55.5231459 -87.1615307 -23.884761 0.0001282
## N:Grass_rel-C:Grass_rel     14.2520683 -17.3863166  45.890453 0.8041980
## P:Grass_rel-C:Grass_rel      9.7829542 -21.8554306  41.421339 0.9659199
## N+P:Grass_rel-C:Grass_rel  -15.4337326 -47.0721175  16.204652 0.7369102
## P:Grass_rel-N:Grass_rel     -4.4691140 -36.1074989  27.169271 0.9997112
## N+P:Grass_rel-N:Grass_rel  -29.6858009 -61.3241858   1.952584 0.0770123
## N+P:Grass_rel-P:Grass_rel  -25.2166869 -56.8550717   6.421698 0.1903277

## # A tibble: 60 x 10
##    site     yr trt   meadow snow    grp       meancov secov  nobs post_yrs
##    <chr> <int> <fct> <chr>  <chr>   <chr>       <dbl> <dbl> <int>    <dbl>
##  1 sdl    1997 C     dry    no snow Forb_rel    65.6   5.72     4        4
##  2 sdl    1997 C     dry    no snow Geum_rel     9.70  2.37     4        4
##  3 sdl    1997 C     dry    no snow Grass_rel   34.4   5.72     4        4
##  4 sdl    1997 N     dry    no snow Forb_rel    37.2   4.38     4        4
##  5 sdl    1997 N     dry    no snow Geum_rel     7.16  1.96     4        4
##  6 sdl    1997 N     dry    no snow Grass_rel   62.8   4.38     4        4
##  7 sdl    1997 P     dry    no snow Forb_rel    58.2  12.4      4        4
##  8 sdl    1997 P     dry    no snow Geum_rel    12.5   7.57     4        4
##  9 sdl    1997 P     dry    no snow Grass_rel   41.8  12.4      4        4
## 10 sdl    1997 N+P   dry    no snow Forb_rel    52.3   6.75     4        4
## #  with 50 more rows
…
##  [1] "ALGE"   "ARFEF3" "ARSC"   "CAPU"   "CARO2"  "CARUD"  "CAUN2" 
##  [8] "CEARS2" "GERO2"  "KOMY"   "LLSE"   "MELA3"  "MIOB2"  "ORALA" 
## [15] "POA"    "POBI6"  "POVI"   "SEDES"  "SELA"   "SOMU"   "TRSP2"

## # A tibble: 21 x 16
##    site     yr  nobs clean_code2 simple_name simple_lifeform2 C_mean  C_se
##    <chr> <int> <int> <chr>       <chr>       <chr>             <dbl> <dbl>
##  1 nutn  2017     4 ALGE        Allium gey Forb               3.51  1.3 
##  2 nutn  2017     4 ARFEF3      Arenaria f Forb               3     1.13
##  3 nutn  2017     4 ARSC        Artemisia  Forb               0.61  0.35
##  4 nutn  2017     4 CAPU        Calamagros Grass              0     0   
##  5 nutn  2017     4 CARO2       Campanula  Forb               5.81  1.64
##  6 nutn  2017     4 CARUD       Carex rupe Grass             14.8   0.61
##  7 nutn  2017     4 CAUN2       Campanula  Forb               0.23  0.13
##  8 nutn  2017     4 CEARS2      Cerastium  Forb               0.47  0.35
##  9 nutn  2017     4 GERO2       Geum rossii Forb               9.95  2.28
## 10 nutn  2017     4 KOMY        Kobresia m Grass             29.0   7.1 
## #  with 11 more rows, and 8 more variables: K_mean <dbl>, K_se <dbl>,
## #   N_mean <dbl>, N_se <dbl>, `N+P_mean` <dbl>, `N+P_se` <dbl>,
## #   `N+P+K_mean` <dbl>, `N+P+K_se` <dbl>
…
